quartus_prime/week3/work1/simulation/qsim/dectobin.msim.vcd
$comment
	File created using the following command:
		vcd file dectobin.msim.vcd -direction
$end
$date
	Wed Sep 27 15:18:11 2023
$end
$version
	ModelSim Version 2020.1
$end
$timescale
	1ps
$end

$scope module rippleCarry_vlg_vec_tst $end
$var reg 1 ! A0 $end
$var reg 1 " A1 $end
$var reg 1 # A2 $end
$var reg 1 $ A3 $end
$var reg 1 % B0 $end
$var reg 1 & B1 $end
$var reg 1 ' B2 $end
$var reg 1 ( B3 $end
$var reg 1 ) C0 $end
$var wire 1 * C4 $end
$var wire 1 + S0 $end
$var wire 1 , S1 $end
$var wire 1 - S2 $end
$var wire 1 . S3 $end

$scope module i1 $end
$var wire 1 / gnd $end
$var wire 1 0 vcc $end
$var wire 1 1 unknown $end
$var tri1 1 2 devclrn $end
$var tri1 1 3 devpor $end
$var tri1 1 4 devoe $end
$var wire 1 5 ~QUARTUS_CREATED_GND~I_combout $end
$var wire 1 6 B0~input_o $end
$var wire 1 7 A0~input_o $end
$var wire 1 8 C0~input_o $end
$var wire 1 9 inst|inst6|inst~combout $end
$var wire 1 : B1~input_o $end
$var wire 1 ; A1~input_o $end
$var wire 1 < inst1|inst6|inst~combout $end
$var wire 1 = B2~input_o $end
$var wire 1 > inst1|inst5~combout $end
$var wire 1 ? A2~input_o $end
$var wire 1 @ inst2|inst6|inst~combout $end
$var wire 1 A A3~input_o $end
$var wire 1 B B3~input_o $end
$var wire 1 C inst3|inst6|inst~combout $end
$var wire 1 D inst3|inst5~combout $end
$upscope $end
$upscope $end
$enddefinitions $end
#0
$dumpvars
0!
0"
0#
0$
1%
1&
1'
1(
1)
1*
0+
0,
0-
0.
0/
10
x1
12
13
14
05
16
07
18
09
1:
0;
0<
1=
1>
0?
0@
0A
1B
0C
1D
$end
#10000
0%
0&
0'
0(
0)
06
0:
0=
0B
08
0>
0D
1@
1-
0*
0@
0-
#25000
1!
17
19
1+
#35000
1%
16
1<
09
0+
1,
#40000
1"
1;
1>
0<
0,
1@
1-
#50000
0!
07
0>
1<
19
1+
1,
0@
0-
#60000
1#
1&
0%
1?
1:
06
1>
0<
09
1@
1-
0+
0,
1C
0@
0-
1.
#75000
1!
17
19
1+
#80000
1'
0"
1=
0;
0>
1<
1@
1-
1,
0@
0-
#85000
1%
16
1>
0<
09
0+
0,
1@
1-
#95000
1$
1(
1A
1B
1D
1*
#100000
0!
07
0>
1<
19
1+
1,
0@
0-
#110000
0&
0%
0:
06
0<
09
0+
0,
#120000
1)
0#
1"
18
0?
1;
1<
0C
1@
19
1+
1-
0.
1,
#125000
1!
17
1>
0<
09
0+
0,
1C
0@
0-
1.
#135000
1%
16
19
1+
#150000
0'
0!
0=
07
09
0C
1@
1-
0.
0+
#160000
1&
0"
0%
1:
0;
06
0>
1<
19
1+
1,
0@
0-
#175000
1!
17
1>
0<
09
0+
0,
1@
1-
#180000
0(
1#
0B
1?
0@
0-
#185000
1%
16
19
1+
#190000
0$
0A
0D
1C
1.
0*
#200000
1"
0!
1;
07
1<
09
0+
1,
#210000
0&
0%
0:
06
0>
19
1+
0C
1@
1-
0.
#220000
1'
1=
1C
0@
0-
1.
#225000
1!
17
1>
0<
09
0+
0,
1@
1-
#230000
0)
08
0>
1<
19
1+
1,
0@
0-
#235000
1%
16
1>
0<
09
0+
0,
1@
1-
#240000
0#
0"
0?
0;
0>
1<
0@
0-
1,
0C
1@
1-
0.
#250000
0!
07
0<
19
1+
0,
#260000
1&
0%
1:
06
1<
09
0+
1,
#265000
1(
1B
1C
1.
#275000
1!
17
19
1+
#280000
1"
1;
1>
0<
0,
1D
0C
0@
0-
0.
1*
#285000
1$
1%
1A
16
1<
09
1C
1.
0+
1,
#290000
0'
0=
0C
1@
1-
0.
#300000
1#
0!
1?
07
0<
19
1C
0@
0-
1.
1+
0,
#310000
0&
0%
0:
06
0>
1<
09
0+
1,
0C
1@
1-
0.
#320000
0"
0;
0<
0,
#325000
1!
17
19
1+
#335000
1%
16
1<
09
0+
1,
#340000
1)
18
19
1+
#350000
0(
0!
0B
07
09
0D
1C
1.
0*
0+
#360000
1'
0#
1&
1"
0%
1=
0?
1:
1;
06
1>
0<
19
1+
0,
1D
0C
0@
0-
0.
1*
#375000
1!
17
1<
09
0+
1,
#380000
0$
0A
0D
1C
1.
0*
#385000
1%
16
19
1+
#400000
0"
0!
0;
07
0<
09
0+
0,
#410000
0&
0%
0:
06
0>
19
1+
0C
1@
1-
0.
#420000
1#
1?
1C
0@
0-
1.
#425000
1!
17
1<
09
0+
1,
#430000
0'
0=
0C
1@
1-
0.
#435000
1(
1%
1B
16
19
1C
1.
1+
#440000
1"
1;
1>
0<
0,
1D
0C
0@
0-
0.
1*
#450000
0)
0!
08
07
0>
1<
1,
0D
1C
1@
1-
1.
0*
#460000
1&
0%
1:
06
1>
0<
09
0+
0,
1D
0C
0@
0-
0.
1*
#475000
1$
1!
1A
17
19
1C
1.
1+
#480000
0#
0"
0?
0;
0>
1<
0C
1@
1-
0.
1,
0@
0-
#485000
1%
16
1>
0<
09
0+
0,
1@
1-
#500000
1'
0!
1=
07
0>
1<
19
1C
0@
0-
1.
1+
1,
0C
1@
1-
0.
#510000
0&
0%
0:
06
0<
09
0+
0,
#520000
0(
1"
0B
1;
1<
0D
1C
1.
0*
1,
#525000
1!
17
19
1+
#535000
1%
16
1>
0<
09
0+
0,
1D
0C
0@
0-
0.
1*
#540000
1#
1?
1@
1-
#550000
0!
07
0>
1<
19
1+
1,
0@
0-
#560000
1)
1&
0"
0%
18
1:
0;
06
#570000
0$
0'
0A
0=
0D
1@
1-
0*
#575000
1!
17
1>
0<
09
0+
0,
1C
0@
0-
1.
#585000
1%
16
19
1+
#600000
0#
1"
0!
0?
1;
07
1<
09
0C
1@
1-
0.
0+
1,
#605000
1(
1B
1C
1.
#610000
0&
0%
0:
06
0>
19
1+
0@
0-
#625000
1!
17
1>
0<
09
0+
0,
1@
1-
#635000
1%
16
19
1+
#640000
1'
0"
1=
0;
0>
1<
1D
0C
0@
0-
0.
1*
1,
0D
1C
1@
1-
1.
0*
#650000
0!
07
09
0+
#660000
1#
1&
0%
1?
1:
06
19
1D
0C
0@
0-
0.
1*
1+
#665000
1$
1A
1C
1.
#670000
0)
08
09
0+
#675000
1!
17
19
1+
#680000
1"
1;
1>
0<
0,
1@
1-
#685000
1%
16
1<
09
0+
1,
#690000
0(
0B
0C
0.
#700000
0!
07
0<
19
1+
0,
#710000
0'
0&
0%
0=
0:
06
0>
1<
09
0@
0-
0+
1,
0D
1C
1@
1-
1.
0*
#720000
0#
0"
0?
0;
0<
0@
0-
0,
#725000
1!
17
19
1+
#735000
1%
16
1<
09
0+
1,
#750000
0!
07
0<
19
1+
0,
#760000
0$
1&
1"
0%
0A
1:
1;
06
1>
09
0C
0.
0+
1@
1-
#775000
1(
1!
1B
17
19
1C
1.
1+
#780000
1)
1'
1#
18
1=
1?
1D
0C
1<
09
0+
1,
0.
1*
#785000
1%
16
19
1+
#800000
0"
0!
0;
07
0<
09
0+
0,
#810000
0&
0%
0:
06
0>
19
1+
0@
0-
#825000
1!
17
1<
09
0+
1,
#835000
1%
16
19
1+
#840000
0#
1"
0?
1;
1>
0<
0D
1C
1@
1-
1.
0*
0,
1D
0C
0@
0-
0.
1*
#850000
0'
0!
0=
07
09
0D
1C
1@
1-
1.
0*
0+
#855000
1$
1A
1D
0C
0.
1*
#860000
0(
1&
0%
0B
1:
06
19
0D
1C
1.
0*
1+
#875000
1!
17
1<
09
0+
1,
#880000
0"
0;
0<
0,
#885000
1%
16
19
1+
#890000
0)
08
09
0+
#900000
1#
0!
1?
07
0>
1<
19
1D
0C
0@
0-
0.
1*
1+
1,
0D
1C
1@
1-
1.
0*
#910000
0&
0%
0:
06
0<
09
0+
0,
#920000
1'
1"
1=
1;
1<
1D
0C
0@
0-
0.
1*
1,
#925000
1!
17
19
1+
#935000
1%
16
1>
0<
09
0+
0,
1@
1-
#945000
1(
1B
1C
1.
#950000
0$
0!
0A
07
0>
1<
19
0C
0.
1+
1,
0@
0-
#960000
0#
1&
0"
0%
0?
1:
0;
06
09
0D
1C
1@
1-
1.
0*
0+
#975000
1!
17
19
1+
#985000
1%
16
1>
0<
09
0+
0,
1D
0C
0@
0-
0.
1*
#990000
0'
0=
0D
1C
1@
1-
1.
0*
