quartus_prime/week4/work2/simulation/qsim/work2.msim.vcd
$comment
	File created using the following command:
		vcd file work2.msim.vcd -direction
$end
$date
	Sun Oct 01 17:35:45 2023
$end
$version
	ModelSim Version 2020.1
$end
$timescale
	1ps
$end

$scope module work5_vlg_vec_tst $end
$var reg 1 ! ce $end
$var reg 1 " clk $end
$var reg 1 # d1 $end
$var reg 1 $ d2 $end
$var reg 1 % d3 $end
$var reg 1 & d4 $end
$var reg 1 ' rst $end
$var wire 1 ( A1 $end
$var wire 1 ) A2 $end
$var wire 1 * A3 $end
$var wire 1 + A4 $end
$var wire 1 , B1 $end
$var wire 1 - B2 $end
$var wire 1 . B3 $end
$var wire 1 / B4 $end

$scope module i1 $end
$var wire 1 0 gnd $end
$var wire 1 1 vcc $end
$var wire 1 2 unknown $end
$var tri1 1 3 devclrn $end
$var tri1 1 4 devpor $end
$var tri1 1 5 devoe $end
$var wire 1 6 ~QUARTUS_CREATED_GND~I_combout $end
$var wire 1 7 clk~input_o $end
$var wire 1 8 clk~inputCLKENA0_outclk $end
$var wire 1 9 d1~input_o $end
$var wire 1 : rst~input_o $end
$var wire 1 ; ce~input_o $end
$var wire 1 < inst|inst1|inst3~q $end
$var wire 1 = d2~input_o $end
$var wire 1 > inst|inst2|inst3~q $end
$var wire 1 ? d3~input_o $end
$var wire 1 @ inst|inst6|inst3~feeder_combout $end
$var wire 1 A inst|inst6|inst3~q $end
$var wire 1 B d4~input_o $end
$var wire 1 C inst|inst7|inst3~feeder_combout $end
$var wire 1 D inst|inst7|inst3~q $end
$var wire 1 E inst1|inst1|inst3~feeder_combout $end
$var wire 1 F inst1|inst1|inst3~q $end
$var wire 1 G inst1|inst2|inst3~feeder_combout $end
$var wire 1 H inst1|inst2|inst3~q $end
$var wire 1 I inst1|inst6|inst3~feeder_combout $end
$var wire 1 J inst1|inst6|inst3~q $end
$var wire 1 K inst1|inst7|inst3~feeder_combout $end
$var wire 1 L inst1|inst7|inst3~q $end
$upscope $end
$upscope $end
$enddefinitions $end
#0
$dumpvars
0!
1"
0#
0$
0%
0&
1'
0(
0)
0*
0+
0,
0-
0.
0/
00
11
x2
13
14
15
06
17
18
09
1:
0;
0<
0=
0>
0?
0@
0A
0B
0C
0D
0E
0F
0G
0H
0I
0J
0K
0L
$end
#20000
0"
07
08
#40000
1"
17
18
#60000
0"
07
08
#80000
1!
1#
1$
1"
1;
19
1=
17
18
1>
1<
1(
1)
1E
1G
#100000
0"
07
08
#120000
0!
0#
0$
0;
09
0=
#170000
1!
1;
#200000
1%
1&
1"
1?
1B
17
18
1C
1@
1H
1F
0>
0<
0(
0)
1,
1-
0E
0G
#220000
0!
0"
0;
07
08
#230000
0%
0&
0?
0B
0C
0@
#270000
1"
17
18
#290000
0"
07
08
#310000
1"
17
18
#330000
0"
07
08
#350000
1"
17
18
#370000
0"
07
08
