quartus_prime/week3/work2/simulation/qsim/adder.msim.vcd
$comment
	File created using the following command:
		vcd file adder.msim.vcd -direction
$end
$date
	Wed Sep 27 19:30:06 2023
$end
$version
	ModelSim Version 2020.1
$end
$timescale
	1ps
$end

$scope module adder_vlg_vec_tst $end
$var reg 1 ! A0 $end
$var reg 1 " A1 $end
$var reg 1 # A2 $end
$var reg 1 $ A3 $end
$var reg 1 % A4 $end
$var reg 1 & A5 $end
$var reg 1 ' A6 $end
$var reg 1 ( A7 $end
$var reg 1 ) A8 $end
$var reg 1 * A9 $end
$var reg 1 + A10 $end
$var reg 1 , A11 $end
$var reg 1 - B0 $end
$var reg 1 . B1 $end
$var reg 1 / B2 $end
$var reg 1 0 B3 $end
$var reg 1 1 B4 $end
$var reg 1 2 B5 $end
$var reg 1 3 B6 $end
$var reg 1 4 B7 $end
$var reg 1 5 B8 $end
$var reg 1 6 B9 $end
$var reg 1 7 B10 $end
$var reg 1 8 B11 $end
$var reg 1 9 Cin $end
$var wire 1 : Carry $end
$var wire 1 ; Sum0 $end
$var wire 1 < Sum1 $end
$var wire 1 = Sum2 $end
$var wire 1 > Sum3 $end

$scope module i1 $end
$var wire 1 ? gnd $end
$var wire 1 @ vcc $end
$var wire 1 A unknown $end
$var tri1 1 B devclrn $end
$var tri1 1 C devpor $end
$var tri1 1 D devoe $end
$var wire 1 E A0~input_o $end
$var wire 1 F B0~input_o $end
$var wire 1 G ~QUARTUS_CREATED_GND~I_combout $end
$var wire 1 H A3~input_o $end
$var wire 1 I A9~input_o $end
$var wire 1 J A5~input_o $end
$var wire 1 K A7~input_o $end
$var wire 1 L A1~input_o $end
$var wire 1 M A11~input_o $end
$var wire 1 N inst2|inst3~combout $end
$var wire 1 O B1~input_o $end
$var wire 1 P B11~input_o $end
$var wire 1 Q B9~input_o $end
$var wire 1 R B7~input_o $end
$var wire 1 S B3~input_o $end
$var wire 1 T B5~input_o $end
$var wire 1 U inst3|inst3~combout $end
$var wire 1 V Cin~input_o $end
$var wire 1 W B2~input_o $end
$var wire 1 X B10~input_o $end
$var wire 1 Y B6~input_o $end
$var wire 1 Z inst3|inst2~combout $end
$var wire 1 [ A2~input_o $end
$var wire 1 \ A6~input_o $end
$var wire 1 ] A10~input_o $end
$var wire 1 ^ inst2|inst2~combout $end
$var wire 1 _ inst|inst1|inst2~combout $end
$var wire 1 ` A8~input_o $end
$var wire 1 a inst2|inst~combout $end
$var wire 1 b B4~input_o $end
$var wire 1 c inst3|inst1~combout $end
$var wire 1 d A4~input_o $end
$var wire 1 e inst2|inst1~combout $end
$var wire 1 f B8~input_o $end
$var wire 1 g inst3|inst~combout $end
$var wire 1 h inst|inst3|inst2~combout $end
$var wire 1 i inst|inst3|inst1|inst2~combout $end
$var wire 1 j inst|inst2|inst1|inst2~combout $end
$var wire 1 k inst|inst1|inst1|inst2~combout $end
$var wire 1 l inst|inst|inst1|inst2~combout $end
$upscope $end
$upscope $end
$enddefinitions $end
#0
$dumpvars
0!
0"
0#
0$
0%
0&
0'
0(
0)
0*
1+
0,
1-
1.
1/
10
01
12
13
14
15
16
07
08
09
1:
1;
0<
0=
1>
0?
1@
xA
1B
1C
1D
0E
1F
0G
0H
0I
0J
0K
0L
0M
1N
1O
0P
1Q
1R
1S
1T
0U
0V
1W
0X
1Y
0Z
0[
0\
1]
0^
1_
0`
0a
0b
0c
0d
1e
1f
0g
1h
1i
0j
0k
1l
$end
#2000
1*
1I
0N
0l
1k
1<
0;
#10000
0.
0O
#12000
0+
0]
1^
0k
0<
#13000
0*
0I
1a
1N
0_
1l
1k
0i
0>
1<
1;
1j
1i
0h
0:
1>
1=
#17500
1,
1M
0a
0^
0N
1_
0l
0i
1h
1:
0>
0;
0j
1i
1>
0=
#20000
06
19
0Q
1V
1l
1;
#24000
1*
1I
#25000
1.
1O
#30000
1(
11
1K
1b
0e
1j
1=
#35000
1"
1)
0,
0*
1L
1`
0M
0I
#40000
0-
0/
00
05
09
0.
0F
0W
0S
0f
0V
0O
1g
0l
0;
0i
0>
#46000
1*
1I
#50000
1!
03
04
1E
0Y
0R
1Z
0k
0<
#52500
1,
1M
#55000
1&
1.
1J
1O
#57000
0*
0I
#60000
02
0(
19
0T
0K
1V
1l
1;
#65000
18
1P
0g
0Z
1k
1i
1>
1<
#68000
1*
1I
#70000
0"
0)
0,
0.
0L
0`
0M
0O
1^
0k
0<
#74500
1+
1]
0^
1k
1<
#75000
1#
17
1[
1X
#79000
0*
0I
#80000
09
0V
0l
0;
#85000
1$
16
1-
1.
1H
1Q
1F
1O
#87500
1,
1M
#90000
1/
1(
1*
1W
1K
1I
#100000
01
0!
19
0.
0b
0E
1V
0O
1c
1l
1;
0j
0=
#101000
0*
0I
#105000
1"
1)
0,
1L
1`
0M
#110000
10
15
0&
1S
1f
0J
#112000
1*
1I
#115000
1.
1O
#120000
1%
0(
09
1d
0K
0V
0l
0;
#122500
1,
1M
#123000
0*
0I
#125000
14
1R
0c
1j
1=
#130000
08
0-
0.
0P
0F
0O
#134000
1*
1I
#137000
0+
0]
#140000
0/
0"
0)
19
0,
0W
0L
0`
1V
0M
1l
1;
#145000
1.
0*
1O
0I
1a
0i
0>
#150000
1'
13
0#
07
06
1!
1(
1\
1Y
0[
0X
0Q
1E
1K
#156000
1*
1I
0a
1i
1>
#157500
1,
1M
#160000
12
09
0.
1T
0V
0O
0l
0;
#165000
1&
1J
#167000
0*
0I
#170000
0$
11
0H
1b
#175000
1-
1"
1)
0,
1.
1F
1L
1`
0M
1O
#178000
1*
1I
#180000
00
05
0(
19
0S
0f
0K
1V
1g
1l
1;
0i
0>
#189000
0*
0I
#190000
1/
0.
1W
0O
#192500
1,
1M
#195000
18
1P
0g
1i
1>
#199500
1+
1]
#200000
04
0!
09
1*
0R
0E
0V
1I
0l
0;
#205000
1.
1O
#210000
0"
0)
1(
0,
0L
0`
1K
0M
#211000
0*
0I
#215000
16
1Q
#220000
0&
0-
19
0.
0J
0F
1V
0O
1l
1;
#222000
1*
1I
#225000
1#
17
1[
1X
#227500
1,
1M
#233000
0*
0I
#235000
1.
1O
#240000
0%
01
0/
0(
09
0d
0b
0W
0K
0V
0l
0;
#244000
1*
1I
#245000
1"
1)
0,
1L
1`
0M
#250000
03
10
15
1!
0.
0Y
1S
1f
1E
0O
#255000
1$
0*
1H
0I
#260000
02
08
19
0T
0P
1V
1c
1l
1;
0j
0=
#262000
0+
0]
#262500
1,
1M
#265000
1-
1.
1F
1O
#266000
1*
1I
#270000
1(
1K
#275000
14
1&
1R
1J
0c
1j
1=
#277000
0*
0I
#280000
06
0"
0)
09
0,
0.
0Q
0L
0`
0V
0M
0O
1a
0l
0;
0i
0>
#288000
1*
1I
0a
1i
1>
#290000
1/
1W
#295000
1.
1O
#297500
1,
1M
#299000
0*
0I
#300000
0'
0#
07
0!
0(
19
0\
0[
0X
0E
0K
1V
1l
1;
#310000
11
0-
0.
1*
1b
0F
0O
1I
#315000
1"
1)
0,
1L
1`
0M
#320000
00
05
09
0S
0f
0V
1g
0l
0;
0i
0>
#321000
0*
0I
#324500
1+
1]
#325000
18
1.
1P
1O
0g
1i
1>
#330000
0&
1(
0J
1K
#332000
1*
1I
#332500
1,
1M
#340000
0$
0/
19
0.
0H
0W
1V
0O
1l
1;
#343000
0*
0I
#345000
16
1Q
#350000
13
04
1!
0"
0)
0,
1Y
0R
1E
0L
0`
0M
#354000
1*
1I
#355000
1-
1.
1F
1O
#360000
1%
12
0(
09
1d
1T
0K
0V
0l
0;
#365000
0*
0I
1N
1l
0k
0<
1;
#367500
1,
1M
0N
0l
1k
1<
0;
#370000
0.
0O
#375000
1#
17
1[
1X
#376000
1*
1I
#380000
01
19
0b
1V
1l
1;
#385000
1&
1"
1)
0,
1.
1J
1L
1`
0M
1O
#387000
0+
0*
0]
0I
#390000
10
15
08
1/
1(
1S
1f
0P
1W
1K
#398000
1*
1I
#400000
0!
0-
09
0.
0E
0F
0V
0O
0l
0;
#402500
1,
1M
#409000
0*
0I
#410000
06
0Q
#415000
1.
1O
#420000
0"
0)
0(
19
0,
1*
0L
0`
0K
1V
0M
1I
1l
1;
#425000
1$
14
1H
1R
#430000
0.
0O
#431000
0*
0I
1a
0i
0>
#437500
1,
1M
0a
1i
1>
#440000
0&
0/
09
0J
0W
0V
0l
0;
#442000
1*
1I
#445000
1-
1.
1F
1O
#449500
1+
1]
#450000
1'
03
0#
07
11
1!
1(
1\
0Y
0[
0X
1b
1E
1K
#453000
0*
0I
#455000
18
1"
1)
0,
1P
1L
1`
0M
#460000
02
00
05
19
0.
0T
0S
0f
1V
0O
1l
1;
#464000
1*
1I
#472500
1,
1M
#475000
16
1.
0*
1Q
1O
0I
#480000
0%
0(
09
0d
0K
0V
0l
0;
#486000
1*
1I
#490000
1/
0-
0"
0)
0,
0.
1W
0F
0L
0`
0M
0O
#495000
1&
1J
#497000
0*
0I
#500000
04
0!
19
0R
0E
1V
1l
1;
#505000
1.
1O
#507500
1,
1M
#508000
1*
1I
#510000
0$
1(
0H
1K
#512000
0+
0]
#519000
0*
0I
#520000
01
08
09
0.
0b
0P
0V
0O
1c
0l
0;
0j
0=
#525000
1#
17
1"
1)
0,
1[
1X
1L
1`
0M
#530000
10
15
1*
1S
1f
1I
#535000
1-
1.
1F
1O
#540000
06
0/
0(
19
0Q
0W
0K
1V
1l
1;
#541000
0*
0I
#542500
1,
1M
#550000
13
0&
1!
0.
1Y
0J
1E
0O
0c
1j
1=
#552000
1*
1I
#560000
12
0"
0)
09
0,
1T
0L
0`
0V
0M
0l
0;
#563000
0*
0I
1a
1N
1l
0k
0i
0>
0<
1;
#565000
1.
1O
#570000
1(
1K
0N
0l
1k
1<
0;
#574000
1*
1I
0a
1i
1>
#574500
1+
1]
#575000
14
1R
#577500
1,
1M
#580000
0-
19
0.
0F
1V
0O
1l
1;
#585000
18
0*
1P
0I
#590000
11
1/
1b
1W
#595000
1$
1"
1)
0,
1.
1H
1L
1`
0M
1O
#596000
1*
1I
#600000
0'
1%
0#
07
00
05
0!
0(
09
0\
1d
0[
0X
0S
0f
0E
0K
0V
0l
0;
#605000
16
1&
1Q
1J
#607000
0*
0I
#610000
0.
0O
#612500
1,
1M
#618000
1*
1I
#620000
19
1V
1l
1;
#625000
1-
1.
1F
1O
#629000
0*
0I
#630000
0"
0)
1(
0,
0L
0`
1K
0M
#637000
0+
0]
1a
0i
0>
#640000
0/
09
0.
1*
0W
0V
0O
1I
0a
0l
0;
1i
1>
#647500
1,
1M
#650000
03
04
08
1!
0Y
0R
0P
1E
1Z
0k
0<
#651000
0*
0I
#655000
1.
1O
#660000
02
01
0&
0(
19
0T
0b
0J
0K
1V
1c
1l
1;
0j
0=
#662000
1*
1I
#665000
1"
1)
0,
1L
1`
0M
#670000
10
15
06
0-
0.
1S
1f
0Q
0F
0O
0Z
1k
1<
#673000
0*
0I
#675000
1#
17
1[
1X
#680000
0$
09
0H
0V
0l
0;
#682500
1,
1M
#684000
1*
1I
#685000
1.
1O
#690000
1/
1(
1W
1K
#695000
0*
0I
#699500
1+
1]
#700000
0!
0"
0)
19
0,
0.
0E
0L
0`
1V
0M
0O
1l
1;
#706000
1*
1I
#715000
18
1&
1-
1.
1P
1J
1F
1O
#717000
0*
0I
#717500
1,
1M
#720000
0%
0(
09
0d
0K
0V
0l
0;
#725000
14
1R
0c
1j
1=
#728000
1*
1I
#730000
11
0.
1b
0O
#735000
16
1"
1)
0,
1Q
1L
1`
0M
#739000
0*
0I
#740000
00
05
0/
19
0S
0f
0W
1V
1l
1;
#745000
1.
1O
#750000
1'
13
0#
07
1!
1(
1*
1\
1Y
0[
0X
1E
1K
1I
#752500
1,
1M
#760000
12
0-
09
0.
1T
0F
0V
0O
0l
0;
#761000
0*
0I
#762000
0+
0]
#765000
1$
1H
#770000
0&
0"
0)
0,
0J
0L
0`
0M
1a
0i
0>
#772000
1*
1I
0a
1i
1>
#775000
1.
1O
#780000
08
0(
19
0P
0K
1V
1l
1;
#783000
0*
0I
1a
0i
0>
#787500
1,
1M
0a
1i
1>
#790000
1/
0.
1W
0O
#794000
1*
1I
#800000
04
01
06
0!
09
0R
0b
0Q
0E
0V
1g
0l
0;
0i
0>
#805000
1-
1"
1)
0,
1.
0*
1F
1L
1`
0M
1O
0I
#810000
10
15
1(
1S
1f
1K
0g
1i
1>
#816000
1*
1I
#820000
19
0.
1V
0O
1l
1;
#822500
1,
1M
#824500
1+
1]
#825000
1#
17
1&
1[
1X
1J
#827000
0*
0I
#835000
1.
1O
#838000
1*
1I
#840000
1%
0/
0"
0)
0(
09
0,
1d
0W
0L
0`
0K
0V
0M
0l
0;
#845000
18
1P
#849000
0*
0I
#850000
03
0$
1!
0-
0.
0Y
0H
1E
0F
0O
#857500
1,
1M
#860000
02
19
1*
0T
1V
1I
1c
1l
1;
0j
0=
#865000
16
1.
1Q
1O
#870000
11
1(
1b
1K
0c
1j
1=
#871000
0*
0I
#875000
14
1"
1)
0,
1R
1L
1`
0M
#880000
00
05
0&
09
0.
0S
0f
0J
0V
0O
0l
0;
#882000
1*
1I
#887000
0+
0]
#890000
1/
1W
#892500
1,
1M
#893000
0*
0I
#895000
1-
1.
1F
1O
#900000
0'
0#
07
0!
0(
19
0\
0[
0X
0E
0K
1V
1l
1;
#904000
1*
1I
#910000
08
0"
0)
0,
0.
0P
0L
0`
0M
0O
1^
0k
0<
#915000
0*
0I
1a
1N
0l
0i
0>
0;
#920000
09
0V
0_
1l
1k
1<
1;
0j
0=
#925000
1.
1O
#926000
1*
1I
0a
0N
1_
0l
0k
1i
1>
0<
0;
1j
1=
#927500
1,
1M
0^
1k
1<
#930000
06
1(
0Q
1K
1g
0i
0>
#935000
1$
1&
1H
1J
#937000
0*
0I
#940000
01
0/
0-
19
0.
0b
0W
0F
1V
0O
1l
1;
#945000
1"
1)
0,
1L
1`
0M
#948000
1*
1I
#949500
1+
1]
#950000
13
04
10
15
1!
1Y
0R
1S
1f
1E
0g
1i
1>
#955000
1.
1O
#959000
0*
0I
#960000
0%
12
0(
09
0d
1T
0K
0V
0l
0;
#962500
1,
1M
#970000
0.
1*
0O
1I
#975000
1#
17
18
1[
1X
1P
#980000
0"
0)
19
0,
0L
0`
1V
0M
1l
1;
#981000
0*
0I
#985000
1-
1.
1F
1O
#990000
0&
1/
1(
0J
1W
1K
#992000
1*
1I
#995000
16
1Q
#997500
1,
1M
