quartus_prime/week3/work3/simulation/qsim/fourBitCompare.msim.vcd
$comment
	File created using the following command:
		vcd file fourBitCompare.msim.vcd -direction
$end
$date
	Wed Sep 27 19:36:18 2023
$end
$version
	ModelSim Version 2020.1
$end
$timescale
	1ps
$end

$scope module fourBitCompare_vlg_vec_tst $end
$var reg 1 ! A0 $end
$var reg 1 " A1 $end
$var reg 1 # A2 $end
$var reg 1 $ A3 $end
$var reg 1 % B0 $end
$var reg 1 & B1 $end
$var reg 1 ' B2 $end
$var reg 1 ( B3 $end
$var wire 1 ) Eq $end
$var wire 1 * Gt $end
$var wire 1 + Lt $end

$scope module i1 $end
$var wire 1 , gnd $end
$var wire 1 - vcc $end
$var wire 1 . unknown $end
$var tri1 1 / devclrn $end
$var tri1 1 0 devpor $end
$var tri1 1 1 devoe $end
$var wire 1 2 ~QUARTUS_CREATED_GND~I_combout $end
$var wire 1 3 A1~input_o $end
$var wire 1 4 B3~input_o $end
$var wire 1 5 B2~input_o $end
$var wire 1 6 A2~input_o $end
$var wire 1 7 A3~input_o $end
$var wire 1 8 inst6~0_combout $end
$var wire 1 9 B0~input_o $end
$var wire 1 : B1~input_o $end
$var wire 1 ; A0~input_o $end
$var wire 1 < inst2~combout $end
$var wire 1 = inst5~0_combout $end
$var wire 1 > inst5~1_combout $end
$var wire 1 ? inst6~1_combout $end
$var wire 1 @ inst6~2_combout $end
$upscope $end
$upscope $end
$enddefinitions $end
#0
$dumpvars
0!
0"
0#
0$
0%
0&
0'
0(
1)
0*
0+
0,
1-
x.
1/
10
11
02
03
04
05
06
07
18
09
0:
0;
0<
0=
0>
0?
0@
$end
#20000
1(
14
08
1@
1+
1<
0)
#25000
1!
1;
1=
#40000
0(
04
18
0@
1>
1*
0+
#50000
1"
0!
13
0;
#60000
1(
14
08
1@
0>
0*
1+
#75000
1#
1!
16
1;
#80000
0(
04
0@
1>
1*
0+
#100000
1$
0"
0!
1(
17
03
0;
14
0=
#120000
0(
04
#125000
1%
1!
19
1;
#140000
1(
14
#150000
1&
0#
1"
0!
1:
06
13
0;
1?
18
0>
0*
1@
1+
#160000
0(
04
08
0@
1>
1*
0+
#175000
1'
1!
15
1;
0?
#180000
1(
14
1@
0>
0*
1+
#200000
0$
0"
0!
0(
07
03
0;
04
1?
#220000
1(
14
#225000
1#
1!
16
1;
#240000
0(
04
18
#250000
0%
1"
0!
09
13
0;
0?
0<
1)
0@
0+
#260000
1(
14
08
1@
1+
1<
0)
#275000
1!
1;
1=
#280000
0(
04
18
0@
1>
1*
0+
#300000
0&
1$
0#
0"
0!
1(
0:
17
06
03
0;
14
08
0=
0<
1@
0>
0*
1+
1)
1<
0)
#320000
0(
04
0@
1>
1*
0+
#325000
1!
1;
1=
#340000
1(
14
1@
0>
0*
1+
#350000
0'
1"
0!
05
13
0;
18
0@
1>
1*
0+
#360000
0(
04
08
#375000
1%
1#
1!
19
16
1;
#380000
1(
14
#400000
0$
0"
0!
0(
07
03
0;
04
1?
0=
#420000
1(
14
1@
0>
0*
1+
#425000
1!
1;
0?
#440000
0(
04
0@
1>
1*
0+
#450000
1&
0#
1"
0!
1:
06
13
0;
1?
18
0>
0*
1@
1+
#460000
1(
14
08
#475000
1!
1;
0?
#480000
0(
04
18
0@
0+
0<
1)
#500000
0%
1$
0"
0!
1(
09
17
03
0;
14
1?
1<
0)
1@
1+
#520000
0(
04
08
0@
1>
1*
0+
#525000
1'
1#
1!
15
16
1;
#540000
1(
14
18
1@
0>
0*
1+
#550000
1"
0!
13
0;
0?
0<
1)
0@
0+
#560000
0(
04
08
1>
1*
1<
0)
#575000
1!
1;
1=
#580000
1(
14
18
#600000
0&
0$
0#
0"
0!
0(
0:
07
06
03
0;
04
08
0=
0<
1@
0>
0*
1+
1)
1<
0)
#620000
1(
14
#625000
1%
1!
19
1;
#640000
0(
04
#650000
1"
0!
13
0;
1=
#660000
1(
14
#675000
1#
1!
16
1;
#680000
0(
04
18
0@
1>
1*
0+
#700000
0'
1$
0"
0!
1(
05
17
03
0;
14
08
1?
0=
#720000
0(
04
#725000
1!
1;
0?
#740000
1(
14
#750000
1&
0%
0#
1"
0!
1:
09
06
13
0;
18
0>
0*
0<
1)
#760000
0(
04
08
1>
1*
1<
0)
#775000
1!
1;
1=
#780000
1(
14
18
#800000
0$
0"
0!
0(
07
03
0;
04
1?
0=
0>
1@
1+
0*
#820000
1(
14
08
#825000
1#
1!
16
1;
#840000
0(
04
0@
1>
1*
0+
#850000
1"
0!
13
0;
0?
#860000
1(
14
1@
0>
0*
1+
#875000
1'
1%
1!
15
19
1;
#880000
0(
04
18
0@
0+
0<
1)
#900000
0&
1$
0#
0"
0!
1(
0:
17
06
03
0;
14
08
1?
1<
1@
1+
0)
#920000
0(
04
0@
1>
1*
0+
#925000
1!
1;
0?
#940000
1(
14
1@
0>
0*
1+
#950000
1"
0!
13
0;
1=
#960000
0(
04
0@
1>
1*
0+
#975000
1#
1!
16
1;
#980000
1(
14
18
